<?xml version="1.0" encoding="UTF-8"?>
<svg width="90px" height="90px" viewBox="0 0 90 90" version="1.1" xmlns="http://www.w3.org/2000/svg" xmlns:xlink="http://www.w3.org/1999/xlink">
    <!-- Generator: Sketch 60 (88103) - https://sketch.com -->
    <title>money</title>
    <desc>Created with Sketch.</desc>
    <defs>
        <linearGradient x1="2.40073493%" y1="77.9782336%" x2="100%" y2="30.7502287%" id="linearGradient-1">
            <stop stop-color="#8F1B1B" offset="0%"></stop>
            <stop stop-color="#BF4444" offset="100%"></stop>
        </linearGradient>
    </defs>
    <g id="Page-1" stroke="none" stroke-width="1" fill="none" fill-rule="evenodd">
        <g id="Home" transform="translate(-818.000000, -2342.000000)" fill="url(#linearGradient-1)" fill-rule="nonzero">
            <g id="money" transform="translate(818.000000, 2342.000000)">
                <path d="M79.5458222,8.66910068 C79.5368957,8.66910068 79.5286561,8.66910068 79.5197296,8.66910068 C76.7120361,8.66910068 74.0711974,9.75736426 72.0806122,11.7351527 C71.5079498,12.3039553 71.0108184,12.9289529 70.5899048,13.595069 C69.5503234,12.0702665 68.3638,10.6215331 67.0303345,9.2714833 C55.0531768,-2.85223686 35.4267882,-2.99066844 23.2793427,8.96309641 C21.8497467,10.3693411 20.5684662,11.9071641 19.4478608,13.5477828 C19.0331269,12.8994849 18.5469819,12.2909346 17.9873657,11.7351527 C15.9906006,9.75188183 13.3435821,8.66087721 10.5221558,8.66910068 C4.706955,8.68280695 -0.0130462734,13.4162044 -2.69803012e-05,19.2186768 L-2.69803012e-05,63.0747325 C0.0109863281,67.8403393 1.94870004,72.3338804 5.30158992,75.7281931 L19.2988586,89.8975471 L29.1735077,89.8975471 L10.308609,70.8008543 C8.25691219,68.7243821 7.03811637,65.9749408 7.03125,63.0596557 L7.03125,19.2042855 C7.02713004,17.2689858 8.60023494,15.691415 10.5386353,15.6866178 L10.5475616,15.6866178 C11.4834595,15.6866178 12.3637391,16.0498293 13.0270386,16.7084067 C13.692398,17.3697255 14.06044,18.2503418 14.0625,19.185097 L14.0625,50.4233277 L14.124298,50.4212719 C14.008255,51.3868658 14.033661,52.3757601 14.2128754,53.3584865 C14.4188691,54.4871829 14.9269867,56.6198503 16.0180664,58.2234626 C16.636734,59.1335468 28.3536529,73.8134525 33.3620453,80.0833025 L38.8593292,75.7083192 C32.4295806,67.6601042 22.6380157,55.3705403 21.8222808,54.2624031 C21.6561127,54.0019874 21.3327026,53.2118315 21.1301422,52.1009529 C20.9632873,51.1840157 21.2585449,50.2472045 21.9218446,49.5947947 C22.4567413,49.0684809 23.1708526,48.7875062 23.9165497,48.786821 C24.6677398,48.7923034 25.3722382,49.0890402 25.9002686,49.6235776 L42.9805756,66.9001017 C43.0835723,67.0042679 43.1851959,67.1091196 43.2868194,67.2139712 C48.2258605,72.3359362 51.4256288,78.7544974 52.5407411,85.775441 L53.1958008,89.8975471 L60.2936554,89.8975471 L60.1844787,89.0786083 L59.4854736,84.676898 C58.264618,76.9918945 54.9666596,69.9065321 49.9067687,64.050606 L64.1127778,49.6811432 C64.6401215,49.147291 65.3446197,48.8505542 66.09581,48.8450718 C66.8401337,48.8395893 67.5549316,49.1267319 68.0898285,49.6530457 C68.753128,50.3054555 69.0490723,51.2422665 68.8815308,52.1598892 C68.6796571,53.2687116 68.3569336,54.0588677 68.1893921,54.3206539 C67.9641724,54.6256145 66.6327667,56.3450432 59.4799805,65.3259575 C60.8512115,67.4935754 62.0452881,69.7626183 63.0539703,72.1159536 C63.4611512,71.6047165 63.8758849,71.0845705 64.2933654,70.5603125 C73.521881,58.9759267 73.8288116,58.5243113 73.9936065,58.2817134 C75.0846864,56.6781011 75.5934906,54.5447485 75.7994843,53.4167374 C75.9464263,52.6108194 75.9903717,51.8001044 75.9375,51.0017248 L75.9375,31.6768257 C75.9477997,31.211504 75.9477997,30.7468675 75.9375,30.281546 L75.9375,19.1878382 C75.93956,18.2503418 76.3748931,17.3704109 77.0402528,16.7090922 C77.7035522,16.0498293 78.5838319,15.6873033 79.5204162,15.6873033 L79.5286561,15.6873033 C81.4670562,15.691415 82.97287,17.2696711 82.96875,19.205656 L82.96875,63.0589705 C82.9618836,65.9749408 81.810379,68.7243821 79.7586822,70.8015396 L60.8937836,89.8975471 L70.7684326,89.8975471 L84.7657012,75.7281931 C88.1185913,72.3345657 89.9883271,67.8410246 89.9993437,63.0740473 L89.9993437,19.2200475 C90.0130463,13.4162044 85.3610229,8.68280695 79.5458222,8.66910068 L79.5458222,8.66910068 Z M59.1071319,44.7531191 L49.6046447,54.3645134 C46.6033173,54.9477075 43.4832001,54.951134 40.479126,54.3789049 L30.9059142,44.6962388 C29.0602111,42.8274138 26.5958404,41.7878069 23.9659882,41.7693038 C23.873291,41.7686184 23.7812804,41.7720448 23.68927,41.7741008 C19.0427398,32.6472168 20.7978057,21.258828 28.2156372,13.9596507 C37.6020812,4.72311799 52.7680206,4.83002547 62.0233154,14.1981368 C69.309311,21.5740681 70.9654999,32.7342505 66.2839508,41.8316664 C66.2042999,41.8302959 66.1253358,41.8268692 66.0456847,41.8268692 C63.4172059,41.8460579 60.9521484,42.8849792 59.1071319,44.7531191 L59.1071319,44.7531191 Z M54.3164062,36.4650475 C54.3164062,40.1225173 51.9612121,43.3544129 48.6914062,44.7435248 L48.6914062,49.1952622 L41.6601562,49.1952622 L41.6601562,44.7695664 C40.6171417,44.3378246 39.6496582,43.7141976 38.8071441,42.9130768 C37.0198058,41.2135219 36.0351562,38.9588703 36.0351562,36.5637313 L43.0664062,36.5637313 C43.0664062,37.5498844 44.0654755,38.4483186 45.1627349,38.4483186 C46.2339019,38.4483186 47.2851562,37.4655921 47.2851562,36.4643622 C47.2851562,35.7708342 45.2650451,34.7312274 43.7901307,33.9719102 L43.5491181,33.8485554 C41.2303162,32.6526992 36.9140625,30.4275158 36.9140625,24.9060182 C36.9140625,21.6830315 38.8586426,18.8965839 41.6601562,17.6068409 L41.6601562,12.879611 L48.6914062,12.879611 L48.6914062,17.6040997 C51.4936065,18.8821923 53.4375,21.6309484 53.4375,24.8093901 L46.40625,24.8093901 C46.40625,24.3118592 45.8136749,23.858873 45.1627349,23.858873 C44.537201,23.858873 43.9453125,24.3673688 43.9453125,24.9060182 C43.9453125,25.792802 44.2014312,26.2862212 46.776352,27.6136559 L47.012558,27.7349548 C48.5272979,28.5148311 50.0935363,29.3207491 51.4215088,30.4700047 C53.342743,32.1311826 54.3164062,34.1480333 54.3164062,36.4650475 Z" id="Shape"></path>
            </g>
        </g>
    </g>
</svg>