<?xml version="1.0" encoding="UTF-8"?>
<svg width="90px" height="90px" viewBox="0 0 90 90" version="1.1" xmlns="http://www.w3.org/2000/svg" xmlns:xlink="http://www.w3.org/1999/xlink">
    <!-- Generator: Sketch 60 (88103) - https://sketch.com -->
    <title>channel</title>
    <desc>Created with Sketch.</desc>
    <defs>
        <linearGradient x1="100%" y1="27.1510979%" x2="2.99048939%" y2="77.5880226%" id="linearGradient-1">
            <stop stop-color="#CE5151" offset="0%"></stop>
            <stop stop-color="#7F0D0D" offset="100%"></stop>
        </linearGradient>
    </defs>
    <g id="Page-1" stroke="none" stroke-width="1" fill="none" fill-rule="evenodd">
        <g id="Home" transform="translate(-248.000000, -2342.000000)" fill="url(#linearGradient-1)" fill-rule="nonzero">
            <g id="channel" transform="translate(248.000000, 2342.000000)">
                <path d="M82.8658537,54.105606 L82.8658537,35.894394 C87.028868,34.3947602 90,30.5330658 90,26.015625 C90,20.1997375 85.076696,15.46875 79.0243902,15.46875 C76.0496855,15.46875 73.3493711,16.6133881 71.3707602,18.4659576 L55.9448837,11.2939453 C55.9634623,11.0467529 55.9756098,10.7981873 55.9756098,10.546875 C55.9756098,4.73098746 51.0523057,0 45,0 C38.9476943,0 34.0243902,4.73098746 34.0243902,10.546875 C34.0243902,10.8222198 34.0386814,11.0948182 34.0608327,11.3653564 L18.5699314,18.4123993 C16.597037,16.5914154 13.9210174,15.46875 10.9756098,15.46875 C4.92330402,15.46875 0,20.1997375 0,26.015625 C0,30.5330658 2.97113195,34.3947602 7.13414634,35.894394 L7.13414634,54.105606 C2.97113195,55.6052398 0,59.4669342 0,63.984375 C0,69.8002625 4.92330402,74.53125 10.9756098,74.53125 C13.9674638,74.53125 16.682784,73.3735656 18.664253,71.5010834 L34.06512,78.5824585 C34.0401106,78.870163 34.0243902,79.1599273 34.0243902,79.453125 C34.0243902,85.2690125 38.9476943,90 45,90 C51.0523057,90 55.9756098,85.2690125 55.9756098,79.453125 C55.9756098,79.1358947 55.9584604,78.8227843 55.929878,78.5124207 L71.3950553,71.5560151 C73.3715224,73.3955382 76.0618332,74.53125 79.0243902,74.53125 C85.076696,74.53125 90,69.8002625 90,63.984375 C90,59.4669342 87.028868,55.6052398 82.8658537,54.105606 L82.8658537,54.105606 Z M79.0243902,22.5 C81.0415873,22.5 82.6829268,24.0772247 82.6829268,26.015625 C82.6829268,27.9540253 81.0415873,29.53125 79.0243902,29.53125 C77.0071932,29.53125 75.3658537,27.9540253 75.3658537,26.015625 C75.3658537,24.0772247 77.0071932,22.5 79.0243902,22.5 Z M45,7.03125 C47.0171971,7.03125 48.6585366,8.60847469 48.6585366,10.546875 C48.6585366,12.4852753 47.0171971,14.0625 45,14.0625 C42.9828029,14.0625 41.3414634,12.4852753 41.3414634,10.546875 C41.3414634,8.60847469 42.9828029,7.03125 45,7.03125 Z M10.9756098,22.5 C12.9928068,22.5 14.6341463,24.0772247 14.6341463,26.015625 C14.6341463,27.9540253 12.9928068,29.53125 10.9756098,29.53125 C8.95841268,29.53125 7.31707317,27.9540253 7.31707317,26.015625 C7.31707317,24.0772247 8.95841268,22.5 10.9756098,22.5 Z M10.9756098,67.5 C8.95841268,67.5 7.31707317,65.9227753 7.31707317,63.984375 C7.31707317,62.0459747 8.95841268,60.46875 10.9756098,60.46875 C12.9928068,60.46875 14.6341463,62.0459747 14.6341463,63.984375 C14.6341463,65.9227753 12.9928068,67.5 10.9756098,67.5 Z M45,82.96875 C42.9828029,82.96875 41.3414634,81.3915253 41.3414634,79.453125 C41.3414634,77.5147247 42.9828029,75.9375 45,75.9375 C47.0171971,75.9375 48.6585366,77.5147247 48.6585366,79.453125 C48.6585366,81.3915253 47.0171971,82.96875 45,82.96875 Z M45,68.90625 C41.885242,68.90625 39.0720274,70.161438 37.0719798,72.1705627 L21.8783345,65.1839447 C21.9247809,64.7898101 21.9512195,64.3901825 21.9512195,63.984375 C21.9512195,59.335785 18.8043064,55.3834533 14.4512195,53.9826964 L14.4512195,36.0173036 C18.8043064,34.6165467 21.9512195,30.664215 21.9512195,26.015625 C21.9512195,25.5679321 21.9183498,25.1271056 21.8618998,24.6938324 L37.0348227,17.7916718 C39.0362996,19.8227691 41.865949,21.09375 45,21.09375 C48.1597752,21.09375 51.0094321,19.8021698 53.0144817,17.7422333 L68.1280965,24.7693634 C68.0773628,25.1786041 68.0487805,25.5940246 68.0487805,26.015625 C68.0487805,30.664215 71.1956936,34.6165467 75.5487805,36.0173036 L75.5487805,53.9826964 C71.1956936,55.3834533 68.0487805,59.3364716 68.0487805,63.984375 C68.0487805,64.4169618 68.0787918,64.8419952 68.1316692,65.2601623 L52.8787156,72.1211242 C50.8822409,70.1408387 48.089034,68.90625 45,68.90625 L45,68.90625 Z M79.0243902,67.5 C77.0071932,67.5 75.3658537,65.9227753 75.3658537,63.984375 C75.3658537,62.0459747 77.0071932,60.46875 79.0243902,60.46875 C81.0415873,60.46875 82.6829268,62.0459747 82.6829268,63.984375 C82.6829268,65.9227753 81.0415873,67.5 79.0243902,67.5 Z M55.7898247,35.1535034 C55.7898247,29.436493 50.865806,24.7851562 44.8142149,24.7851562 L44.8142149,31.8164062 C46.831412,31.8164062 48.4727515,33.3132935 48.4727515,35.1535034 L48.4727515,37.9660034 L41.1556784,37.9660034 L41.1556784,35.1535034 C41.1556784,33.3132935 42.7963034,31.8164062 44.8142149,31.8164062 L44.8142149,24.7851562 C38.7619094,24.7851562 33.8386052,29.436493 33.8386052,35.1535034 L33.8386052,37.9660034 L27.9878049,37.9660034 L27.9878049,63.2785034 L61.6463415,63.2785034 L61.6463415,37.9660034 L55.7898247,37.9660034 L55.7898247,35.1535034 Z M54.3292683,56.2472534 L35.304878,56.2472534 L35.304878,44.9972534 L54.3292683,44.9972534 L54.3292683,56.2472534 Z" id="Shape"></path>
            </g>
        </g>
    </g>
</svg>